Reaction Activation Parameters Obtained by Essential Transition State Theory — eval_kinR_Eyring_GHS • eprscope
…
## ∆S and ∆H parameters
activ.kinet.test.data$df.coeffs.HS
#> # A tibble: 2 × 5
#>   term   estimate std.error statistic  p.value
#>   <chr>     <dbl>     <dbl>     <dbl>    <dbl>
#> 1 dS         7.20      1.08      6.66 2.89e- 4
#> 2 dH    118795.      390.      305.   1.09e-15
#
## compare values with those presented in
## https://www.rsc.org/suppdata/nj/b5/b501687h/b501687h.pdf
## ∆S = (7.2 +- 1.1) kJ/mol*K & ∆H = (118.80 +- 0.41) kJ/mol
#
## preview of the new `.fitted` data frame
activ.kinet.test.data$df.fit
#> # A tibble: 1,024 × 2
#>      T_K    .fitted
#>    <dbl>      <dbl>
#>  1  323. 0.00000101
#>  2  323. 0.00000101
#>  3  323. 0.00000102
#>  4  323. 0.00000102
#>  5  323. 0.00000103
#>  6  323. 0.00000103
#>  7  323. 0.00000104
#>  8  323. 0.00000104
#>  9  323. 0.00000105
#> 10  324. 0.00000106
#> # ℹ 1,014 more rows
…
