First Steps with R Language • eprscope
…
# This is to be performed by loop.
time.string.vec <- 
  sapply(time.span, function(s) paste0("time_s_",s))
#
# 3. Add magetic flux density column names
# like `B_mT` and `B_G`
time.string.vec <- c("B_G","B_mT",time.string.vec)
#
# 4. Data frame and preview
triarylam.decay.filter.df.wide <-
  triarylam.decay.dat.wide |>
  dplyr::select(dplyr::all_of(time.string.vec)) 
#
triarylam.decay.filter.df.wide
#> # A tibble: 2,400 × 8
#>      B_G  B_mT time_s_214 time_s_229 time_s_244 time_s_259 time_s_274 time_s_288
#>    <dbl> <dbl>      <dbl>      <dbl>      <dbl>      <dbl>      <dbl>      <dbl>
#>  1 3390   339     1.28e-5   -1.87e-5   -1.39e-6   -1.67e-5   -1.93e-5   -1.38e-6
#>  2 3390.  339.    4.55e-6   -2.20e-5   -2.01e-5   -8.38e-6   -1.04e-5    2.47e-5
#>  3 3390.  339.    6.12e-6    6.76e-6   -2.44e-5    1.54e-5    3.91e-5   -2.31e-5
#>  4 3390.  339.   -3.15e-6    8.90e-6   -8.47e-8    4.15e-6    1.67e-5   -2.28e-6
#>  5 3390.  339.   -1.93e-5    9.59e-6    2.63e-5    2.33e-5   -1.16e-5    1.38e-5
#>  6 3390.  339.   -2.48e-5   -1.87e-5    2.37e-5    3.21e-6    1.62e-6    1.81e-5
#>  7 3390.  339.   -1.68e-5    8.09e-6    1.26e-5   -2.05e-5    8.50e-6   -1.62e-5
#>  8 3391.  339.    1.73e-6   -1.95e-5    2.05e-5   -9.21e-6    2.79e-6   -3.27e-6
#>  9 3391.  339.   -1.46e-5    3.66e-6    5.74e-6   -2.80e-5    4.04e-7   -2.71e-6
#> 10 3391.  339.    4.70e-6    3.12e-5    4.59e-6   -1.71e-5    7.41e-7   -9.68e-6
#> # ℹ 2,390 more rows
…
triarylam.decay.dat.filter.long <-
  triarylam.decay.filter.df.wide %>%
  tidyr::pivot_longer(
    # the following columns are not included 
    # in transformation:
    !dplyr::all_of(c("B_G","B_mT")),
    # transformation:
    names_to = "time_s",
    values_to = "dIepr_over_dB"
  ) %>%
  arrange(time_s)
#
# tidy data frame (long form) preview
triarylam.decay.dat.filter.long
#> # A tibble: 14,400 × 4
#>      B_G  B_mT time_s     dIepr_over_dB
#>    <dbl> <dbl> <chr>              <dbl>
#>  1 3390   339  time_s_214    0.0000128 
#>  2 3390.  339. time_s_214    0.00000455
#>  3 3390.  339. time_s_214    0.00000612
#>  4 3390.  339. time_s_214   -0.00000315
#>  5 3390.  339. time_s_214   -0.0000193 
#>  6 3390.  339. time_s_214   -0.0000248 
#>  7 3390.  339. time_s_214   -0.0000168 
#>  8 3391.  339. time_s_214    0.00000173
#>  9 3391.  339. time_s_214   -0.0000146 
#> 10 3391.  339. time_s_214    0.00000470
#> # ℹ 14,390 more rows
…
